# This file was created by OSM2World 0.3.0-dev - http://osm2world.org


newmtl ASPHALT_0
Ns 92.156863
Ka 0.14901961 0.14901961 0.14901961
Kd 0.14901961 0.14901961 0.14901961
Ks 0.000000 0.000000 0.000000
Ke 0.000000 0.000000 0.000000
Ni 1
illum 2

newmtl KERB_0
Ns 92.156863
Ka 0.2 0.2 0.2
Kd 0.2 0.2 0.2
Ks 0.000000 0.000000 0.000000
Ke 0.000000 0.000000 0.000000
Ni 1
illum 2

newmtl MAT_0_0
Ns 92.156863
Ka 0.14901961 0.101960786 0.101960786
Kd 0.14901961 0.101960786 0.101960786
Ks 0.000000 0.000000 0.000000
Ke 0.000000 0.000000 0.000000
Ni 1
illum 2

newmtl MAT_1_0
Ns 92.156863
Ka 0.0 0.2509804 0.0
Kd 0.0 0.2509804 0.0
Ks 0.000000 0.000000 0.000000
Ke 0.000000 0.000000 0.000000
Ni 1
illum 2

newmtl MAT_2_0
Ns 92.156863
Ka 0.39215687 0.39215687 0.39215687
Kd 0.39215687 0.39215687 0.39215687
Ks 0.000000 0.000000 0.000000
Ke 0.000000 0.000000 0.000000
Ni 1
illum 2

newmtl STEEL_0
Ns 92.156863
Ka 0.39215687 0.39215687 0.39215687
Kd 0.39215687 0.39215687 0.39215687
Ks 0.000000 0.000000 0.000000
Ke 0.000000 0.000000 0.000000
Ni 1
illum 2

newmtl CONCRETE_0
Ns 92.156863
Ka 0.27450982 0.27450982 0.27450982
Kd 0.27450982 0.27450982 0.27450982
Ks 0.000000 0.000000 0.000000
Ke 0.000000 0.000000 0.000000
Ni 1
illum 2

newmtl GRASS_0
Ns 92.156863
Ka 0.0 0.4 0.0
Kd 0.0 0.4 0.0
Ks 0.000000 0.000000 0.000000
Ke 0.000000 0.000000 0.000000
Ni 1
illum 2

newmtl EARTH_0
Ns 92.156863
Ka 0.14901961 0.0 0.0
Kd 0.14901961 0.0 0.0
Ks 0.000000 0.000000 0.000000
Ke 0.000000 0.000000 0.000000
Ni 1
illum 2

newmtl WOOD_0
Ns 92.156863
Ka 0.14901961 0.101960786 0.101960786
Kd 0.14901961 0.101960786 0.101960786
Ks 0.000000 0.000000 0.000000
Ke 0.000000 0.000000 0.000000
Ni 1
illum 2

newmtl ROAD_MARKING_DASHED_0
Ns 92.156863
Ka 0.4509804 0.4509804 0.4509804
Kd 0.4509804 0.4509804 0.4509804
Ks 0.000000 0.000000 0.000000
Ke 0.000000 0.000000 0.000000
Ni 1
illum 2

newmtl ENTRANCE_DEFAULT_0
Ns 92.156863
Ka 0.101960786 0.0 0.0
Kd 0.101960786 0.0 0.0
Ks 0.000000 0.000000 0.000000
Ke 0.000000 0.000000 0.000000
Ni 1
illum 2

newmtl BUS_STOP_SIGN_0
Ns 92.156863
Ka 0.49019608 0.4509804 0.023529412
Kd 0.49019608 0.4509804 0.023529412
Ks 0.000000 0.000000 0.000000
Ke 0.000000 0.000000 0.000000
Ni 1
illum 2

newmtl POWER_TOWER_VERTICAL_0
Ns 92.156863
Ka 0.7019608 0.7019608 0.7019608
Kd 0.0 0.0 0.0
Ks 0.000000 0.000000 0.000000
Ke 0.000000 0.000000 0.000000
Ni 1
illum 2

newmtl POWER_TOWER_HORIZONTAL_0
Ns 92.156863
Ka 0.7019608 0.7019608 0.7019608
Kd 0.0 0.0 0.0
Ks 0.000000 0.000000 0.000000
Ke 0.000000 0.000000 0.000000
Ni 1
illum 2

newmtl MAT_3_0
Ns 92.156863
Ka 0.27450982 0.27450982 0.27450982
Kd 0.27450982 0.27450982 0.27450982
Ks 0.000000 0.000000 0.000000
Ke 0.000000 0.000000 0.000000
Ni 1
illum 2

newmtl PLASTIC_BLACK_0
Ns 92.156863
Ka 0.0 0.0 0.0
Kd 0.0 0.0 0.0
Ks 0.000000 0.000000 0.000000
Ke 0.000000 0.000000 0.000000
Ni 1
illum 2

newmtl RED_ROAD_MARKING_0
Ns 92.156863
Ka 0.3019608 0.14901961 0.14901961
Kd 0.3019608 0.14901961 0.14901961
Ks 0.000000 0.000000 0.000000
Ke 0.000000 0.000000 0.000000
Ni 1
illum 2

newmtl BUILDING_DEFAULT_0
Ns 92.156863
Ka 0.5019608 0.4509804 0.27450982
Kd 0.5019608 0.4509804 0.27450982
Ks 0.000000 0.000000 0.000000
Ke 0.000000 0.000000 0.000000
Ni 1
illum 2

newmtl ROOF_DEFAULT_0
Ns 92.156863
Ka 0.4 0.0 0.0
Kd 0.4 0.0 0.0
Ks 0.000000 0.000000 0.000000
Ke 0.000000 0.000000 0.000000
Ni 1
illum 2

newmtl PURIFIED_WATER_0
Ns 92.156863
Ka 0.0 0.0 0.5019608
Kd 0.0 0.0 0.5019608
Ks 0.000000 0.000000 0.000000
Ke 0.000000 0.000000 0.000000
Ni 1
illum 2

newmtl WATER_0
Ns 92.156863
Ka 0.0 0.0 0.5019608
Kd 0.0 0.0 0.5019608
Ks 0.000000 0.000000 0.000000
Ke 0.000000 0.000000 0.000000
Ni 1
illum 2

newmtl PITCH_SOCCER_0
Ns 92.156863
Ka 0.0 0.4 0.0
Kd 0.0 0.4 0.0
Ks 0.000000 0.000000 0.000000
Ke 0.000000 0.000000 0.000000
Ni 1
illum 2

newmtl PITCH_TENNIS_CLAY_0
Ns 92.156863
Ka 0.4 0.0 0.0
Kd 0.4 0.0 0.0
Ks 0.000000 0.000000 0.000000
Ke 0.000000 0.000000 0.000000
Ni 1
illum 2

newmtl MAT_4_0
Ns 92.156863
Ka 0.36078432 0.36078432 0.36078432
Kd 0.36078432 0.36078432 0.36078432
Ks 0.000000 0.000000 0.000000
Ke 0.000000 0.000000 0.000000
Ni 1
illum 2

newmtl TENNIS_NET_0
Ns 92.156863
Ka 0.5019608 0.5019608 0.5019608
Kd 0.5019608 0.5019608 0.5019608
Ks 0.000000 0.000000 0.000000
Ke 0.000000 0.000000 0.000000
Ni 1
illum 2

newmtl MAT_5_0
Ns 92.156863
Ka 0.5019608 0.37254903 0.37254903
Kd 0.5019608 0.37254903 0.37254903
Ks 0.000000 0.000000 0.000000
Ke 0.000000 0.000000 0.000000
Ni 1
illum 2

newmtl TERRAIN_DEFAULT_0
Ns 92.156863
Ka 0.0 0.5019608 0.0
Kd 0.0 0.5019608 0.0
Ks 0.000000 0.000000 0.000000
Ke 0.000000 0.000000 0.000000
Ni 1
illum 2

