21100.000000	buturn	46
21200.000000	buturn	46
21300.000000	buturn	46
21400.000000	buturn	46
21500.000000	buturn	46
21600.000000	buturn	46
21700.000000	buturn	46
21800.000000	buturn	46
21900.000000	buturn	46
22000.000000	buturn	46
22100.000000	buturn	46
22200.000000	buturn	46
22300.000000	buturn	46
39600.000000	offp	111
39700.000000	offp	111
39800.000000	offp	111
39900.000000	offp	111
40000.000000	offp	111
40100.000000	offp	111
40200.000000	offp	111
40300.000000	offp	111
40400.000000	offp	111
40500.000000	offp	111
40600.000000	offp	111
40700.000000	offp	111
40800.000000	offp	111
40900.000000	offp	111
41000.000000	offp	111
41100.000000	offp	111
41200.000000	offp	111
41300.000000	offp	111
41400.000000	offp	111
41500.000000	offp	111
41600.000000	offp	111
41700.000000	offp	111
41800.000000	offp	111
41900.000000	offp	111
42000.000000	offp	111
42100.000000	offp	111
42200.000000	offp	111
42300.000000	offp	111
42400.000000	offp	111
42500.000000	offp	111
42600.000000	offp	111
42700.000000	offp	111
42800.000000	offp	111
42900.000000	offp	111
43000.000000	offp	111
43100.000000	offp	111
43200.000000	offp	111
43300.000000	offp	111
43400.000000	offp	111
43500.000000	offp	111
43600.000000	offp	111
43700.000000	offp	111
43800.000000	offp	111
43900.000000	offp	111
44000.000000	offp	111
44100.000000	offp	111
44200.000000	offp	111
44300.000000	offp	111
44400.000000	offp	111
44500.000000	offp	111
44600.000000	offp	111
46800.000000	buturn	173
46900.000000	buturn	173
47000.000000	buturn	173
47100.000000	buturn	173
47200.000000	buturn	173
47300.000000	buturn	173
47400.000000	buturn	173
47500.000000	buturn	173
47600.000000	buturn	173
47700.000000	buturn	173
47800.000000	buturn	173
47900.000000	buturn	173
48000.000000	buturn	173
82700.000000	lane	339
84600.000000	offp	344
84700.000000	offp	344
84800.000000	offp	344
84900.000000	offp	344
85000.000000	offp	344
85100.000000	offp	344
85200.000000	offp	344
85300.000000	offp	344
85400.000000	offp	344
85500.000000	offp	344
85600.000000	offp	344
85700.000000	offp	344
85800.000000	offp	344
85900.000000	offp	344
86000.000000	offp	344
86100.000000	offp	344
86200.000000	offp	344
86300.000000	offp	344
86400.000000	offp	344
86500.000000	offp	344
86600.000000	offp	344
86700.000000	offp	344
86800.000000	offp	344
86900.000000	offp	344
87000.000000	offp	344
87100.000000	offp	344
87200.000000	offp	344
87300.000000	offp	344
87400.000000	offp	344
87500.000000	offp	344
87600.000000	offp	344
87700.000000	offp	344
87800.000000	offp	344
87900.000000	offp	344
88000.000000	offp	344
88100.000000	offp	344
88200.000000	offp	344
88300.000000	offp	344
88400.000000	offp	344
88500.000000	offp	344
88600.000000	offp	344
88700.000000	offp	344
88800.000000	offp	344
88900.000000	offp	344
89000.000000	offp	344
89100.000000	offp	344
89200.000000	offp	344
89300.000000	offp	344
89400.000000	offp	344
89500.000000	offp	344
89600.000000	offp	344
89700.000000	offp	344
89800.000000	offp	344
89900.000000	offp	344
90000.000000	offp	344
90100.000000	offp	344
90200.000000	offp	344
90300.000000	offp	344
90400.000000	offp	344
90500.000000	offp	344
90600.000000	offp	344
90700.000000	offp	344
90800.000000	offp	344
90900.000000	offp	344
91000.000000	offp	344
91100.000000	offp	344
91200.000000	offp	344
91300.000000	offp	344
91400.000000	offp	344
91500.000000	offp	344
91600.000000	offp	344
91700.000000	lane	339
91700.000000	offp	344
91800.000000	offp	344
91900.000000	offp	344
92000.000000	offp	344
92100.000000	offp	344
92200.000000	offp	344
92300.000000	offp	344
92400.000000	offp	344
92500.000000	offp	344
92600.000000	offp	344
92700.000000	offp	344
92800.000000	offp	344
92900.000000	offp	344
93000.000000	offp	344
93100.000000	offp	344
93200.000000	offp	344
93300.000000	offp	344
93400.000000	offp	344
93500.000000	offp	344
93600.000000	offp	344
93700.000000	offp	344
93800.000000	offp	344
93900.000000	offp	344
94000.000000	offp	344
94100.000000	offp	344
94200.000000	offp	344
94300.000000	offp	344
94400.000000	offp	344
94500.000000	offp	344
94600.000000	offp	344
94700.000000	offp	344
94800.000000	offp	344
94900.000000	offp	344
95000.000000	offp	344
95100.000000	offp	344
95200.000000	offp	344
95300.000000	offp	344
95400.000000	offp	344
95500.000000	offp	344
95600.000000	offp	344
95700.000000	offp	344
95800.000000	offp	344
95900.000000	offp	344
96000.000000	offp	344
96100.000000	offp	344
96200.000000	offp	344
96300.000000	offp	344
96400.000000	offp	344
96500.000000	offp	344
96600.000000	offp	344
96700.000000	offp	344
96800.000000	offp	344
96900.000000	offp	344
97000.000000	offp	344
97100.000000	offp	344
97200.000000	offp	344
97300.000000	offp	344
97400.000000	offp	344
97500.000000	offp	344
97600.000000	speed	414
97600.000000	offp	344
97700.000000	speed	414
97700.000000	offp	344
97800.000000	speed	414
97800.000000	offp	344
97900.000000	speed	414
97900.000000	offp	344
98000.000000	speed	414
98000.000000	offp	344
98100.000000	speed	414
98100.000000	offp	344
98200.000000	speed	414
98200.000000	offp	344
98300.000000	speed	414
98300.000000	offp	344
98400.000000	speed	414
98400.000000	offp	344
98500.000000	speed	414
98500.000000	offp	344
98600.000000	speed	414
98600.000000	offp	344
98700.000000	speed	414
98700.000000	offp	344
98800.000000	speed	414
98800.000000	offp	344
98900.000000	speed	414
98900.000000	offp	344
99000.000000	speed	414
99000.000000	offp	344
99100.000000	speed	414
99100.000000	offp	344
99200.000000	speed	414
99200.000000	offp	344
99300.000000	speed	414
99300.000000	offp	344
99400.000000	speed	414
99400.000000	offp	344
99500.000000	speed	414
99500.000000	offp	344
99600.000000	speed	414
99600.000000	offp	344
99700.000000	speed	414
99700.000000	offp	344
99800.000000	speed	414
99800.000000	offp	344
99900.000000	speed	414
99900.000000	offp	344
100000.000000	speed	414
100000.000000	offp	344
100100.000000	speed	414
100100.000000	offp	344
100200.000000	speed	414
100200.000000	offp	344
100300.000000	speed	414
100300.000000	offp	344
100400.000000	speed	414
100400.000000	offp	344
100500.000000	speed	414
100500.000000	offp	344
100600.000000	speed	414
100600.000000	offp	344
100700.000000	speed	414
100700.000000	offp	344
100800.000000	speed	414
100800.000000	offp	344
100900.000000	speed	414
100900.000000	offp	344
101000.000000	speed	414
101000.000000	offp	344
101100.000000	speed	414
101100.000000	offp	344
101200.000000	speed	414
101200.000000	offp	344
101300.000000	speed	414
101300.000000	offp	344
101400.000000	speed	414
101400.000000	offp	344
101500.000000	speed	414
101500.000000	offp	344
101600.000000	speed	414
101600.000000	offp	344
101700.000000	speed	414
101700.000000	offp	344
101800.000000	speed	414
101800.000000	offp	344
101900.000000	speed	414
101900.000000	offp	344
102000.000000	speed	414
102000.000000	offp	344
102100.000000	speed	414
102100.000000	offp	344
102200.000000	speed	414
102200.000000	offp	344
102300.000000	speed	414
102300.000000	offp	344
102400.000000	speed	414
102400.000000	offp	344
102500.000000	speed	414
102500.000000	offp	344
102600.000000	speed	414
102600.000000	offp	344
102700.000000	speed	414
102700.000000	offp	344
102800.000000	speed	414
102800.000000	offp	344
102900.000000	speed	414
102900.000000	offp	344
103000.000000	speed	414
103000.000000	offp	344
103100.000000	speed	414
103100.000000	offp	344
103200.000000	speed	414
103200.000000	offp	344
103300.000000	speed	414
103300.000000	offp	344
103400.000000	speed	414
103400.000000	offp	344
103500.000000	speed	414
103500.000000	offp	344
103600.000000	speed	414
103600.000000	offp	344
103700.000000	speed	414
103700.000000	offp	344
103800.000000	speed	414
103800.000000	offp	344
103900.000000	speed	414
103900.000000	offp	344
104000.000000	speed	414
104000.000000	offp	344
104100.000000	speed	414
104100.000000	offp	344
104200.000000	speed	414
104200.000000	offp	344
104300.000000	speed	414
104300.000000	offp	344
104400.000000	speed	414
104500.000000	speed	414
104600.000000	speed	414
104700.000000	speed	414
104800.000000	speed	414
104900.000000	speed	414
105000.000000	speed	414
105100.000000	speed	414
105200.000000	speed	414
105300.000000	speed	414
105400.000000	speed	414
105500.000000	speed	414
105600.000000	speed	414
105700.000000	speed	414
105800.000000	speed	414
105900.000000	speed	414
106000.000000	speed	414
106100.000000	speed	414
106200.000000	speed	414
106300.000000	speed	414
106400.000000	speed	414
106500.000000	speed	414
106600.000000	speed	414
106700.000000	speed	414
106800.000000	speed	414
106900.000000	speed	414
107000.000000	speed	414
107100.000000	speed	414
107200.000000	speed	414
107300.000000	speed	414
